{
  "development": {
    "username": "evannoah",
    "password": 993091,
    "database": "database_development",
    "host": "127.0.0.1",
    "dialect": "postgres"
  },
  "test": {
    "username": "evannoah",
    "password": null,
    "database": "database_test",
    "host": "127.0.0.1",
    "dialect": "postgres"
  },
  "production": {
    "username": "abmcqaefrldwuj",
    "password": "38a2410aee73ab21e46950720e2587e9ec2bcb39d62ed61eb5b2ad47cba4f150",
    "database": "ddoq30s9e10oh0",
    "host": "ec2-34-233-192-238.compute-1.amazonaws.com",
    "dialect": "postgres"
  }
}
